{
    "_links": {
        "next": {
            "href": "http://localhost:8080/risk-service/peligro?page=1&size=20"
        },
        "self": {
            "href": "http://localhost:8080/risk-service/peligro{?page,size,sort}",
            "templated": true
        },
        "search": {
            "href": "http://localhost:8080/risk-service/peligro/search"
        }
    },
    "_embedded": {
        "peligros": [
            {
                "id": "54077d05d97310a7f33837e6",
                "titulo": "test mobile",
                "descripcion": "mi test mobile",
                "imagenes": [
                    {
                        "titulo": "DSCF3739",
                        "path": "http://relevandopeligros.org/wp-content/uploads/2014/08/DSCF3739.jpg"
                    }
                ],
                "siteUrl": "http://relevandopeligros.org/2014/08/peligro-av-costanera-norte-barrio-providencia-cordoba/",
                "source": "MOBILE",
                "_links": {
                    "self": {
                        "href": "http://localhost:8080/risk-service/peligro/54077d05d97310a7f33837e6"
                    }
                }
            },
            {
                "id": "54077cc6d97310a7f33837e5",
                "titulo": "test mobile",
                "descripcion": "mi test mobile",
                "imagenes": [
                    {
                        "titulo": "DSCF3739",
                        "path": "http://relevandopeligros.org/wp-content/uploads/2014/08/DSCF3739.jpg"
                    }
                ],
                "siteUrl": "http://relevandopeligros.org/2014/08/peligro-av-costanera-norte-barrio-providencia-cordoba/",
                "source": "MOBILE",
                "_links": {
                    "self": {
                        "href": "http://localhost:8080/risk-service/peligro/54077cc6d97310a7f33837e5"
                    }
                }
            },
            {
                "id": "54078365d973ad6bbb5f5ed1",
                "titulo": "Peligro – Parque las Naciones B Urca, Córdoba",
                "descripcion": "Luminaria de alumbrado público sin tapa en Parque las Naciones.  ",
                "imagenes": [
                    {
                        "titulo": "Peligro Recibido300px",
                        "path": "http://relevandopeligros.org/wp-content/uploads/2011/06/Peligro-Recibido300px.png"
                    },
                    {
                        "titulo": "Alto Riesgo - Alumbrado Parque de las Naciones 2",
                        "path": "http://relevandopeligros.org/wp-content/uploads/2014/09/Alto-Riesgo-Alumbrado-Parque-de-las-Naciones-2.jpg"
                    },
                    {
                        "titulo": "Alto Riesgo - Alumbrado Parque de las Naciones 1",
                        "path": "http://relevandopeligros.org/wp-content/uploads/2014/09/Alto-Riesgo-Alumbrado-Parque-de-las-Naciones-1.jpg"
                    }
                ],
                "siteUrl": "http://relevandopeligros.org/2014/09/peligro-parque-las-naciones-b-urca-cordoba/",
                "source": "WEBPAGE",
                "_links": {
                    "self": {
                        "href": "http://localhost:8080/risk-service/peligro/54078365d973ad6bbb5f5ed1"
                    }
                }
            },
            {
                "id": "54078365d973ad6bbb5f5ed2",
                "titulo": "Peligro – Altolaguirre 2800 Barrio Arturo Capdevila, Córdoba",
                "descripcion": "Desagüe sin tapa en plena calle, llena de escombros y ramas para que pueda ser visualizado de alguna manera ya que se encuentra en una calle con poca iluminación. Se encuentra ubicado al frente de una guardería y pre-jardin. En Altolaguirre 2800 – Barrio Arturo Capdevila",
                "imagenes": [
                    {
                        "titulo": "WP_001169",
                        "path": "http://relevandopeligros.org/wp-content/uploads/2014/09/WP_001169.jpg"
                    },
                    {
                        "titulo": "WP_001166",
                        "path": "http://relevandopeligros.org/wp-content/uploads/2014/09/WP_001166.jpg"
                    },
                    {
                        "titulo": "Peligro Recibido300px",
                        "path": "http://relevandopeligros.org/wp-content/uploads/2011/06/Peligro-Recibido300px.png"
                    }
                ],
                "siteUrl": "http://relevandopeligros.org/2014/09/peligro-altolaguirre-2800-barrio-arturo-capdevila-cordoba/",
                "source": "WEBPAGE",
                "_links": {
                    "self": {
                        "href": "http://localhost:8080/risk-service/peligro/54078365d973ad6bbb5f5ed2"
                    }
                }
            },
            {
                "id": "54078365d973ad6bbb5f5ed3",
                "titulo": "Peligro Urquiza esq. Av. Colón – Barrio Alberdi – Córdoba",
                "descripcion": "Poste de alumbrado público con fusiblera sin tapa.  ",
                "imagenes": [
                    {
                        "titulo": "DSCF3869",
                        "path": "http://relevandopeligros.org/wp-content/uploads/2014/08/DSCF3869.jpg"
                    },
                    {
                        "titulo": "Peligro En tramite300px",
                        "path": "http://relevandopeligros.org/wp-content/uploads/2011/06/Peligro-En-tramite300px.png"
                    }
                ],
                "siteUrl": "http://relevandopeligros.org/2014/08/peligro-urquiza-esq-av-colon-barrio-alberdi-cordoba/",
                "source": "WEBPAGE",
                "_links": {
                    "self": {
                        "href": "http://localhost:8080/risk-service/peligro/54078365d973ad6bbb5f5ed3"
                    }
                }
            },
            {
                "id": "54078365d973ad6bbb5f5ed4",
                "titulo": "Peligro – San José de Calasanz esq. Caseros – Barrio Alberdi – Córdoba",
                "descripcion": "Cámara de inspección sin identificación con tapa rota. Aparentemente pertenece a la empresa EPEC, ya que hay cables en su interior. Por comentario de comerciante un niño llevado por su madre y que concurre a escuela de la cuadra, quedó con su pie atascado en el orificio.      ",
                "imagenes": [
                    {
                        "titulo": "DSCF3868",
                        "path": "http://relevandopeligros.org/wp-content/uploads/2014/08/DSCF38681.jpg"
                    },
                    {
                        "titulo": "Peligro Recibido300px",
                        "path": "http://relevandopeligros.org/wp-content/uploads/2011/06/Peligro-Recibido300px.png"
                    }
                ],
                "siteUrl": "http://relevandopeligros.org/2014/08/peligro-san-jose-de-calasanz-esq-caseros-barrio-alberdi-cordoba/",
                "source": "WEBPAGE",
                "_links": {
                    "self": {
                        "href": "http://localhost:8080/risk-service/peligro/54078365d973ad6bbb5f5ed4"
                    }
                }
            },
            {
                "id": "54078365d973ad6bbb5f5ed5",
                "titulo": "Peligro – Alumbrado público – Ciudad de Córdoba – Córdoba",
                "descripcion": "El 40% de los postes  de metal de alumbrado público de la Ciudad de Córdoba, no tienen sus descargas a tierra. Por el estado de los postes debido a la falta de mantenimiento, hay posibilidad de descargas eléctricas,  aún más, en días de lluvia.    ",
                "imagenes": [
                    {
                        "titulo": "Peligro En tramite300px",
                        "path": "http://relevandopeligros.org/wp-content/uploads/2011/06/Peligro-En-tramite300px.png"
                    },
                    {
                        "titulo": "DSCF3860",
                        "path": "http://relevandopeligros.org/wp-content/uploads/2014/08/DSCF3860.jpg"
                    },
                    {
                        "titulo": "DSCF3694",
                        "path": "http://relevandopeligros.org/wp-content/uploads/2014/08/DSCF3694.jpg"
                    },
                    {
                        "titulo": "DSCF3697",
                        "path": "http://relevandopeligros.org/wp-content/uploads/2014/08/DSCF3697.jpg"
                    }
                ],
                "siteUrl": "http://relevandopeligros.org/2014/08/peligro-alumbrado-publico-ciudad-de-cordoba-cordoba/",
                "source": "WEBPAGE",
                "_links": {
                    "self": {
                        "href": "http://localhost:8080/risk-service/peligro/54078365d973ad6bbb5f5ed5"
                    }
                }
            },
            {
                "id": "54078365d973ad6bbb5f5ed6",
                "titulo": "Peligro – Duaret Quiros esq. Ayacucho – Barrio Centro – Córdoba",
                "descripcion": "Poste de alumbrado público con fusiblera sin tapa.    ",
                "imagenes": [
                    {
                        "titulo": "Peligro En tramite300px",
                        "path": "http://relevandopeligros.org/wp-content/uploads/2011/06/Peligro-En-tramite300px.png"
                    },
                    {
                        "titulo": "DSCF3863",
                        "path": "http://relevandopeligros.org/wp-content/uploads/2014/08/DSCF3863.jpg"
                    }
                ],
                "siteUrl": "http://relevandopeligros.org/2014/08/peligro-duaret-quiros-esq-ayacucho-barrio-centro-cordoba/",
                "source": "WEBPAGE",
                "_links": {
                    "self": {
                        "href": "http://localhost:8080/risk-service/peligro/54078365d973ad6bbb5f5ed6"
                    }
                }
            },
            {
                "id": "54078365d973ad6bbb5f5ed7",
                "titulo": "Peligro – Bv. Guzmán esq. 24 de Setiembre – Barrio Centro – Córdoba",
                "descripcion": "Poste de alumbrado público con fusiblera sin tapa y semáforo para peatones sin funcionar.  ",
                "imagenes": [
                    {
                        "titulo": "Peligro En tramite300px",
                        "path": "http://relevandopeligros.org/wp-content/uploads/2011/06/Peligro-En-tramite300px.png"
                    },
                    {
                        "titulo": "DSCF3862",
                        "path": "http://relevandopeligros.org/wp-content/uploads/2014/08/DSCF3862.jpg"
                    },
                    {
                        "titulo": "DSCF3861",
                        "path": "http://relevandopeligros.org/wp-content/uploads/2014/08/DSCF3861.jpg"
                    }
                ],
                "siteUrl": "http://relevandopeligros.org/2014/08/peligro-bv-guzman-esq-24-de-setiembre-barrio-centro-cordoba/",
                "source": "WEBPAGE",
                "_links": {
                    "self": {
                        "href": "http://localhost:8080/risk-service/peligro/54078365d973ad6bbb5f5ed7"
                    }
                }
            },
            {
                "id": "54078365d973ad6bbb5f5ed8",
                "titulo": "Peligro – Av Maipú esq. San Jerónimo – Barrio Centro – Córdoba",
                "descripcion": "En esquina NE y en senda peatonal, se está hundiendo pavimento. Hay un  orificio y por el, se puede ver  socavada la tierra, habiendo un hueco de gran tamaño.  ",
                "imagenes": [
                    {
                        "titulo": "Peligro En tramite300px",
                        "path": "http://relevandopeligros.org/wp-content/uploads/2011/06/Peligro-En-tramite300px.png"
                    },
                    {
                        "titulo": "DSCF3881",
                        "path": "http://relevandopeligros.org/wp-content/uploads/2014/08/DSCF3881.jpg"
                    },
                    {
                        "titulo": "DSCF3882",
                        "path": "http://relevandopeligros.org/wp-content/uploads/2014/08/DSCF3882.jpg"
                    },
                    {
                        "titulo": "DSCF3880",
                        "path": "http://relevandopeligros.org/wp-content/uploads/2014/08/DSCF3880.jpg"
                    },
                    {
                        "titulo": "DSCF3884",
                        "path": "http://relevandopeligros.org/wp-content/uploads/2014/08/DSCF3884.jpg"
                    }
                ],
                "siteUrl": "http://relevandopeligros.org/2014/08/peligro-av-maipu-esq-san-jeronimo-barrio-centro-cordoba/",
                "source": "WEBPAGE",
                "_links": {
                    "self": {
                        "href": "http://localhost:8080/risk-service/peligro/54078365d973ad6bbb5f5ed8"
                    }
                }
            },
            {
                "id": "54078365d973ad6bbb5f5ed9",
                "titulo": "Peligro – Altolaguirre 2089 B Yofre Norte Córdoba",
                "descripcion": "Poste de Luz que está a punto de caerse que se encuentra apoyado sobre un árbol.  A su vez la vereda alrededor se encuentra levantada a causa del poste. El poste se encuentra a escasos metros de una escuela primaria y jardín de infantes y de una iglesia.  ",
                "imagenes": [
                    {
                        "titulo": "WP_001162",
                        "path": "http://relevandopeligros.org/wp-content/uploads/2014/08/WP_001162.jpg"
                    },
                    {
                        "titulo": "WP_001160",
                        "path": "http://relevandopeligros.org/wp-content/uploads/2014/08/WP_001160.jpg"
                    },
                    {
                        "titulo": "Peligro Recibido300px",
                        "path": "http://relevandopeligros.org/wp-content/uploads/2011/06/Peligro-Recibido300px.png"
                    }
                ],
                "siteUrl": "http://relevandopeligros.org/2014/08/peligro-altolaguirre-2089-b-yofre-norte-cordoba/",
                "source": "WEBPAGE",
                "_links": {
                    "self": {
                        "href": "http://localhost:8080/risk-service/peligro/54078365d973ad6bbb5f5ed9"
                    }
                }
            },
            {
                "id": "54078365d973ad6bbb5f5eda",
                "titulo": "Peligro – Av. Duarte Quiros 1500 esq. Rio Negro – Barrio Alberdi – Córdoba",
                "descripcion": "Poste de alumbrado público con fusiblera sin tapa y cables al aire.  ",
                "imagenes": [
                    {
                        "titulo": "Peligro En tramite300px",
                        "path": "http://relevandopeligros.org/wp-content/uploads/2011/06/Peligro-En-tramite300px.png"
                    },
                    {
                        "titulo": "DSCF3858",
                        "path": "http://relevandopeligros.org/wp-content/uploads/2014/08/DSCF3858.jpg"
                    }
                ],
                "siteUrl": "http://relevandopeligros.org/2014/08/peligro-av-duarte-quiros-1500-esq-rio-negro-barrio-alberdi-cordoba/",
                "source": "WEBPAGE",
                "_links": {
                    "self": {
                        "href": "http://localhost:8080/risk-service/peligro/54078365d973ad6bbb5f5eda"
                    }
                }
            },
            {
                "id": "54078365d973ad6bbb5f5edb",
                "titulo": "Peligro – Juan Piñero esq. Caseros – Barrio Alberdi – Córdoba",
                "descripcion": "Poste de alumbrado público con fusiblera sin tapa.  ",
                "imagenes": [
                    {
                        "titulo": "DSCF3855",
                        "path": "http://relevandopeligros.org/wp-content/uploads/2014/08/DSCF3855.jpg"
                    },
                    {
                        "titulo": "Peligro En tramite300px",
                        "path": "http://relevandopeligros.org/wp-content/uploads/2011/06/Peligro-En-tramite300px.png"
                    },
                    {
                        "titulo": "DSCF3856",
                        "path": "http://relevandopeligros.org/wp-content/uploads/2014/08/DSCF3856.jpg"
                    },
                    {
                        "titulo": "DSCF3857",
                        "path": "http://relevandopeligros.org/wp-content/uploads/2014/08/DSCF3857.jpg"
                    }
                ],
                "siteUrl": "http://relevandopeligros.org/2014/08/peligro-juan-pinero-esq-caseros-barrio-alberdi-cordoba/",
                "source": "WEBPAGE",
                "_links": {
                    "self": {
                        "href": "http://localhost:8080/risk-service/peligro/54078365d973ad6bbb5f5edb"
                    }
                }
            },
            {
                "id": "54078365d973ad6bbb5f5edc",
                "titulo": "Peligro – Av. Costanera Norte esq. Los Alerces – Barrio Colinas del Cerro – Córdoba",
                "descripcion": "Poste de alumbrado público con fusiblera sin tapa y con tensión permanente. Zona con gran desidad de niños.  ",
                "imagenes": [
                    {
                        "titulo": "DSCF3854",
                        "path": "http://relevandopeligros.org/wp-content/uploads/2014/08/DSCF38541.jpg"
                    },
                    {
                        "titulo": "DSCF3853",
                        "path": "http://relevandopeligros.org/wp-content/uploads/2014/08/DSCF38531.jpg"
                    },
                    {
                        "titulo": "DSCF3851",
                        "path": "http://relevandopeligros.org/wp-content/uploads/2014/08/DSCF38511.jpg"
                    },
                    {
                        "titulo": "Peligro En tramite300px",
                        "path": "http://relevandopeligros.org/wp-content/uploads/2011/06/Peligro-En-tramite300px.png"
                    },
                    {
                        "titulo": "DSCF3852",
                        "path": "http://relevandopeligros.org/wp-content/uploads/2014/08/DSCF38521.jpg"
                    }
                ],
                "siteUrl": "http://relevandopeligros.org/2014/08/peligro-av-costanera-norte-esq-los-alerces-barrio-colinas-del-cerro-cordoba/",
                "source": "WEBPAGE",
                "_links": {
                    "self": {
                        "href": "http://localhost:8080/risk-service/peligro/54078365d973ad6bbb5f5edc"
                    }
                }
            },
            {
                "id": "54078365d973ad6bbb5f5edd",
                "titulo": "Peligro – Lisandro de la Torre esq. Junín – Barrio San Vicente – Córdoba",
                "descripcion": "Cámara de inspección de boca de tormenta si tapa y poste de alumbrado público con fusiblera sin tapa sin tapa. El lugar tiene pendiente, las aguas de lluvia desembocan en la boca de tormenta con mucha presión pudiendo succionar una persona. También puede ocasionar accidentes con vehículos. La cámara de inspección está anegada con líquidos [...]",
                "imagenes": [
                    {
                        "titulo": "Peligro En tramite300px",
                        "path": "http://relevandopeligros.org/wp-content/uploads/2011/06/Peligro-En-tramite300px.png"
                    },
                    {
                        "titulo": "DSCF3843",
                        "path": "http://relevandopeligros.org/wp-content/uploads/2014/08/DSCF3843.jpg"
                    },
                    {
                        "titulo": "DSCF3842",
                        "path": "http://relevandopeligros.org/wp-content/uploads/2014/08/DSCF3842.jpg"
                    },
                    {
                        "titulo": "DSCF3845",
                        "path": "http://relevandopeligros.org/wp-content/uploads/2014/08/DSCF3845.jpg"
                    },
                    {
                        "titulo": "DSCF3848",
                        "path": "http://relevandopeligros.org/wp-content/uploads/2014/08/DSCF3848.jpg"
                    },
                    {
                        "titulo": "DSCF3846",
                        "path": "http://relevandopeligros.org/wp-content/uploads/2014/08/DSCF3846.jpg"
                    },
                    {
                        "titulo": "DSCF3844",
                        "path": "http://relevandopeligros.org/wp-content/uploads/2014/08/DSCF3844.jpg"
                    },
                    {
                        "titulo": "DSCF3847",
                        "path": "http://relevandopeligros.org/wp-content/uploads/2014/08/DSCF3847.jpg"
                    }
                ],
                "siteUrl": "http://relevandopeligros.org/2014/08/peligro-lisandro-de-la-torre-esq-junin-barrio/",
                "source": "WEBPAGE",
                "_links": {
                    "self": {
                        "href": "http://localhost:8080/risk-service/peligro/54078365d973ad6bbb5f5edd"
                    }
                }
            },
            {
                "id": "54078365d973ad6bbb5f5ede",
                "titulo": "Peligro – Zelaya 264 B San Martín, Córdoba",
                "descripcion": "Poste de Luz que se tambalea con el viento en Zelaya 264 B San Martín",
                "imagenes": [
                    {
                        "titulo": "10604020_514264638719773_7790391522502549002_o",
                        "path": "http://relevandopeligros.org/wp-content/uploads/2014/08/10604020_514264638719773_7790391522502549002_o.jpg"
                    },
                    {
                        "titulo": "10499420_514264978719739_5947911707392123337_o",
                        "path": "http://relevandopeligros.org/wp-content/uploads/2014/08/10499420_514264978719739_5947911707392123337_o.jpg"
                    },
                    {
                        "titulo": "Peligro En tramite300px",
                        "path": "http://relevandopeligros.org/wp-content/uploads/2011/06/Peligro-En-tramite300px.png"
                    }
                ],
                "siteUrl": "http://relevandopeligros.org/2014/08/peligro-zelaya-264-b-san-martin-cordoba/",
                "source": "WEBPAGE",
                "_links": {
                    "self": {
                        "href": "http://localhost:8080/risk-service/peligro/54078365d973ad6bbb5f5ede"
                    }
                }
            },
            {
                "id": "54078365d973ad6bbb5f5edf",
                "titulo": "Peligro – Dean Funes 220 Centro , Córdoba",
                "descripcion": "Vereda y cordón roto,desde hace mucho tiempo, que dificulta el normal paso de peatones.Pensemos en los ancianos , niños, y discapacitados…sumado a que es una vereda muy angosta.   Tramitado en Defensa Civil de la Municipalidad de Córdoba 19-8-14",
                "imagenes": [
                    {
                        "titulo": "DSC06041",
                        "path": "http://relevandopeligros.org/wp-content/uploads/2014/08/DSC06041.jpg"
                    },
                    {
                        "titulo": "Peligro En tramite300px",
                        "path": "http://relevandopeligros.org/wp-content/uploads/2011/06/Peligro-En-tramite300px.png"
                    }
                ],
                "siteUrl": "http://relevandopeligros.org/2014/08/peligro-dean-funes-220-centro-cordoba/",
                "source": "WEBPAGE",
                "_links": {
                    "self": {
                        "href": "http://localhost:8080/risk-service/peligro/54078365d973ad6bbb5f5edf"
                    }
                }
            },
            {
                "id": "54078365d973ad6bbb5f5ee0",
                "titulo": "Peligro – Jufre de Loayza 2730 B Cerro Chico, Córdoba",
                "descripcion": "Este poste de alumbrado público nª6581(municipal) se encuentra en esta situación de equilibrio inestable, sostenido solo por el cable que lo alimenta, desde hace más de un año. Varios vecinos hemos reclamado reiteradas veces y todo cae en saco roto. El 0800 888 2447 opc 1-3 nunca atiende. Tramitado en Defensa Civil de la Municipalidad [...]",
                "imagenes": [
                    {
                        "titulo": "Peligro En tramite300px",
                        "path": "http://relevandopeligros.org/wp-content/uploads/2011/06/Peligro-En-tramite300px.png"
                    },
                    {
                        "titulo": "Diapositiva5",
                        "path": "http://relevandopeligros.org/wp-content/uploads/2014/08/Diapositiva5.jpg"
                    },
                    {
                        "titulo": "combinada",
                        "path": "http://relevandopeligros.org/wp-content/uploads/2014/08/combinada.jpg"
                    }
                ],
                "siteUrl": "http://relevandopeligros.org/2014/08/peligro-jufre-de-loayza-2730-b-cerro-chico-cordoba/",
                "source": "WEBPAGE",
                "_links": {
                    "self": {
                        "href": "http://localhost:8080/risk-service/peligro/54078365d973ad6bbb5f5ee0"
                    }
                }
            },
            {
                "id": "54078365d973ad6bbb5f5ee1",
                "titulo": "Peligro – La Hierra 3465 B Alto Verde, Córdoba",
                "descripcion": "Poste de luz caído. Sostenido por árbol. Cables tirantes y ramas a punto de ceder.",
                "imagenes": [
                    {
                        "titulo": "Peligro En tramite300px",
                        "path": "http://relevandopeligros.org/wp-content/uploads/2011/06/Peligro-En-tramite300px.png"
                    },
                    {
                        "titulo": "image-1",
                        "path": "http://relevandopeligros.org/wp-content/uploads/2014/08/image-1.png"
                    },
                    {
                        "titulo": "image",
                        "path": "http://relevandopeligros.org/wp-content/uploads/2014/08/image.png"
                    }
                ],
                "siteUrl": "http://relevandopeligros.org/2014/08/peligro-la-hierra-3465-b-alto-verde-cordoba/",
                "source": "WEBPAGE",
                "_links": {
                    "self": {
                        "href": "http://localhost:8080/risk-service/peligro/54078365d973ad6bbb5f5ee1"
                    }
                }
            },
            {
                "id": "54078365d973ad6bbb5f5ee2",
                "titulo": "Peligro – Bv. Perón 186 – Barrio Centro – Córdoba",
                "descripcion": "Caja de fusibles sin  tapa.      ",
                "imagenes": [
                    {
                        "titulo": "DSCF3772",
                        "path": "http://relevandopeligros.org/wp-content/uploads/2014/08/DSCF37722.jpg"
                    },
                    {
                        "titulo": "Peligro En tramite300px",
                        "path": "http://relevandopeligros.org/wp-content/uploads/2011/06/Peligro-En-tramite300px.png"
                    }
                ],
                "siteUrl": "http://relevandopeligros.org/2014/08/peligro-bv-peron-186-barrio-centro-cordoba/",
                "source": "WEBPAGE",
                "_links": {
                    "self": {
                        "href": "http://localhost:8080/risk-service/peligro/54078365d973ad6bbb5f5ee2"
                    }
                }
            }
        ]
    },
    "page": {
        "size": 20,
        "totalElements": 50,
        "totalPages": 3,
        "number": 0
    }
}